<?xml version="1.0" encoding="UTF-8"?>
<svg width="15px" height="18px" viewBox="0 0 15 18" version="1.1" xmlns="http://www.w3.org/2000/svg" xmlns:xlink="http://www.w3.org/1999/xlink">
    <!-- Generator: Sketch 52.5 (67469) - http://www.bohemiancoding.com/sketch -->
    <title>noun_17647_cc</title>
    <desc>Created with Sketch.</desc>
    <g id="Обучение-(готово)" stroke="none" stroke-width="1" fill="none" fill-rule="evenodd">
        <g id="Урок-/-Меню-•-Сообщения" transform="translate(-1596.000000, -852.000000)" fill="#C1C1C1" fill-rule="nonzero">
            <g id="noun_17647_cc" transform="translate(1596.000000, 852.000000)">
                <path d="M13.5696834,0.458834132 C12.1395327,-0.420093508 10.2538238,0.00182055864 9.35558684,1.39860092 L3.76874428,10.0989586 C3.40922871,10.6542508 3.28945151,11.2837019 3.42376388,11.8519539 C3.55071667,12.4191259 3.9197997,12.911419 4.43221058,13.2255146 C4.9422296,13.5419501 5.55601873,13.6506686 6.13576979,13.5183705 C6.71552085,13.3860723 7.24265089,13.0100576 7.59701476,12.4542254 L11.1331098,6.94864287 C11.3296107,6.64192718 11.2339361,6.23765286 10.9222578,6.04523557 C10.6085556,5.85317827 10.1940272,5.94677696 9.99752636,6.2491727 L6.46419113,11.7558353 C6.26769029,12.059491 6.04690284,12.1907091 5.82905921,12.2432684 C5.61084761,12.2936677 5.37883679,12.2600082 5.14369815,12.1179902 C4.91131936,11.9716522 4.77958284,11.7817549 4.72953769,11.5684579 C4.6835403,11.3540809 4.71021878,11.1006445 4.90211988,10.7973487 L10.4889624,2.09825108 C10.9945657,1.30950217 12.0510337,1.07514546 12.85562,1.56725854 C13.6583664,2.06315157 13.9001286,3.10047698 13.3971012,3.88544594 L6.12859419,15.2071067 C5.65905287,15.9360965 5.00717791,16.39761 4.33892788,16.5876873 C3.66791801,16.7788446 2.99709212,16.7061256 2.42470065,16.3531506 C1.84954933,16.0005356 1.49260961,15.4416434 1.37540827,14.7700729 C1.2604148,14.0972423 1.40171877,13.3216332 1.8710761,12.5913835 L7.07264455,4.48897746 C7.27135326,4.18082179 7.1756787,3.77654747 6.86160854,3.58431018 C6.55011424,3.39225288 6.13797766,3.48585156 5.93945294,3.78950729 L0.738252469,11.8919133 C0.10569641,12.8775795 -0.114907055,13.979164 0.0554672641,14.9846299 C0.222713761,15.9864958 0.795657207,16.9005229 1.71321307,17.463195 C2.62598521,18.0256871 3.71851513,18.1324256 4.71500251,17.8474896 C5.71406575,17.5616536 6.63143762,16.8879231 7.2619698,15.902257 L14.5328687,4.57951618 C15.4287138,3.18219583 14.9974423,1.33650179 13.5696834,0.458834132 Z" id="Shape"></path>
            </g>
        </g>
    </g>
</svg>