<?xml version="1.0" encoding="utf-8"?>
<!-- Generator: Adobe Illustrator 21.1.0, SVG Export Plug-In . SVG Version: 6.00 Build 0)  -->
<svg version="1.1" id="Слой_1" xmlns="http://www.w3.org/2000/svg" xmlns:xlink="http://www.w3.org/1999/xlink" x="0px" y="0px"
	 viewBox="0 0 6.3 6.3" style="enable-background:new 0 0 6.3 6.3;" xml:space="preserve">
<title>Ресурс 1</title>
<g id="Слой_2">
	<g id="Слой_1-2">
		<path d="M3.2,6.3C1.4,6.3,0,4.9,0,3.2S1.4,0,3.2,0c1.7,0,3.2,1.4,3.2,3.2S4.9,6.3,3.2,6.3z M3.2,0.3c-1.6,0-2.9,1.3-2.9,2.9
			C0.3,4.7,1.6,6,3.2,6S6,4.7,6,3.2C6,1.6,4.7,0.3,3.2,0.3z"/>
		<path d="M3,4.3c0,0-0.1,0-0.1,0L1.7,3.2C1.6,3.1,1.6,3,1.7,2.9c0.1-0.1,0.1-0.1,0.2,0l1.1,1l1.5-2.1c0-0.1,0.1-0.1,0.2,0
			c0.1,0,0.1,0.1,0,0.2L3.1,4.2C3.1,4.2,3.1,4.3,3,4.3C3,4.3,3,4.3,3,4.3z"/>
	</g>
</g>
</svg>
