<svg xmlns="http://www.w3.org/2000/svg" width="21" height="19" viewBox="0 0 21 19">
    <g fill="#2780E4" fill-rule="nonzero">
        <path d="M11.66.317A1.57 1.57 0 0 0 9.93.543L4.77 4.908l-2.713.272C.941 5.293.087 6.243.087 7.419v4.207c0 1.154.854 2.126 1.97 2.24l2.712.27 5.162 4.366c.307.25.657.385 1.028.385.241 0 .482-.045.7-.158.57-.272.92-.86.92-1.516V1.9a1.672 1.672 0 0 0-.92-1.583zm-.963 16.24l-5.14-4.365-3.304-.317a.286.286 0 0 1-.24-.271V7.396c0-.135.109-.271.24-.271l3.303-.317 5.14-4.365v14.114zM16.1 4.41a.399.399 0 0 0-.613-.045l-.721.679a.46.46 0 0 0-.044.588A6.363 6.363 0 0 1 16.034 9.5c0 1.47-.48 2.805-1.312 3.868a.46.46 0 0 0 .044.588l.722.679c.175.158.459.135.612-.046 1.094-1.38 1.728-3.166 1.728-5.089A8.096 8.096 0 0 0 16.1 4.41z"/>
        <path d="M18.353 2.285a.408.408 0 0 0-.59-.046l-.744.679c-.175.158-.175.407-.044.588a9.601 9.601 0 0 1 2.078 5.971 9.601 9.601 0 0 1-2.078 5.972c-.153.18-.131.452.044.588l.744.678c.174.159.437.159.59-.045 1.597-1.945 2.538-4.478 2.538-7.215 0-2.692-.963-5.225-2.538-7.17z"/>
    </g>
</svg>
